<?xml version="1.0" encoding="utf-8"?>
<!-- Generator: Adobe Illustrator 16.0.0, SVG Export Plug-In . SVG Version: 6.00 Build 0)  -->
<!DOCTYPE svg PUBLIC "-//W3C//DTD SVG 1.1//EN" "http://www.w3.org/Graphics/SVG/1.1/DTD/svg11.dtd">
<svg version="1.1" id="Livello_1" xmlns="http://www.w3.org/2000/svg" xmlns:xlink="http://www.w3.org/1999/xlink" x="0px" y="0px"
	 width="540.496px" height="166.206px" viewBox="0 0 540.496 166.206" enable-background="new 0 0 540.496 166.206"
	 xml:space="preserve">
<g>
	<defs>
		<rect id="SVGID_1_" x="4.964" y="4.355" width="530.569" height="157.495"/>
	</defs>
	<clipPath id="SVGID_2_">
		<use xlink:href="#SVGID_1_"  overflow="visible"/>
	</clipPath>
	<g clip-path="url(#SVGID_2_)">
		<defs>
			<rect id="SVGID_3_" x="4.964" y="4.355" width="530.569" height="157.495"/>
		</defs>
		<clipPath id="SVGID_4_">
			<use xlink:href="#SVGID_3_"  overflow="visible"/>
		</clipPath>
		<g opacity="0.7" clip-path="url(#SVGID_4_)">
			<g>
				<defs>
					<rect id="SVGID_5_" x="-143.379" y="-126.544" width="827.254" height="297.121"/>
				</defs>
				<clipPath id="SVGID_6_">
					<use xlink:href="#SVGID_5_"  overflow="visible"/>
				</clipPath>
				<path clip-path="url(#SVGID_6_)" fill="#44525B" d="M472.201,125.882h-9.92v-18.348c-8.215,9.477-20.725,15.527-34.734,15.527
					c-24.746,0-44.806-18.842-44.806-42.097c0-1.364,0.068-2.71,0.213-4.031h78.749c-2.182-15.842-16.576-28.078-34.027-28.078
					c-12.824,0-24.014,6.612-29.895,16.412h-11.819c6.63-15.475,22.745-26.399,41.585-26.399c24.73,0,44.654,18.841,44.654,42.097
					V125.882z M461.48,86.606h-67.61c2.778,15.176,16.856,26.723,33.806,26.723S458.703,101.782,461.48,86.606"/>
				<path clip-path="url(#SVGID_6_)" fill="none" stroke="#44525B" stroke-width="0.009" stroke-miterlimit="10" d="
					M472.201,125.882h-9.92v-18.348c-8.215,9.477-20.725,15.527-34.734,15.527c-24.746,0-44.806-18.842-44.806-42.097
					c0-1.364,0.068-2.71,0.213-4.031h78.749c-2.182-15.842-16.576-28.078-34.027-28.078c-12.824,0-24.014,6.612-29.895,16.412
					h-11.819c6.63-15.475,22.745-26.399,41.585-26.399c24.73,0,44.654,18.841,44.654,42.097V125.882z M461.48,86.606h-67.61
					c2.778,15.176,16.856,26.723,33.806,26.723S458.703,101.782,461.48,86.606z"/>
				<path clip-path="url(#SVGID_6_)" fill="#44525B" d="M471.297,125.038h-9.715v-17.989c-8.043,9.297-20.307,15.22-34.043,15.22
					c-24.244,0-43.895-18.475-43.895-41.278c0-1.329,0.067-2.65,0.204-3.945h77.163c-2.121-15.535-16.25-27.542-33.344-27.542
					c-12.563,0-23.52,6.493-29.29,16.089h-11.581c6.493-15.169,22.293-25.88,40.742-25.88c24.244,0,43.758,18.483,43.758,41.278
					V125.038z M460.799,86.529h-66.247c2.719,14.887,16.515,26.204,33.116,26.204C444.275,112.733,458.072,101.416,460.799,86.529"
					/>
				<path clip-path="url(#SVGID_6_)" fill="none" stroke="#44525B" stroke-width="0.009" d="M471.297,125.038h-9.715v-17.989
					c-8.043,9.297-20.307,15.22-34.043,15.22c-24.244,0-43.895-18.475-43.895-41.278c0-1.329,0.067-2.65,0.204-3.945h77.163
					c-2.121-15.535-16.25-27.542-33.344-27.542c-12.563,0-23.52,6.493-29.29,16.089h-11.581c6.493-15.169,22.293-25.88,40.742-25.88
					c24.244,0,43.758,18.483,43.758,41.278V125.038z M460.799,86.529h-66.247c2.719,14.887,16.515,26.204,33.116,26.204
					C444.275,112.733,458.072,101.416,460.799,86.529z"/>
				<path clip-path="url(#SVGID_6_)" fill="#44525B" d="M111.568,86.632c2.471,15.373,16.583,27.158,33.63,27.158
					c11.662,0,21.947-5.514,28.075-13.925h12.488c-7.201,14.265-22.663,24.125-40.563,24.125c-24.771,0-44.857-18.876-44.857-42.165
					c0-23.281,20.086-42.156,44.857-42.156c24.777,0,44.862,18.875,44.862,42.156c0,1.619-0.094,3.229-0.103,4.807H111.568z
					 M111.598,76.892h67.205c-2.522-15.313-16.604-27.03-33.605-27.03C128.202,49.861,114.116,61.578,111.598,76.892"/>
				<path clip-path="url(#SVGID_6_)" fill="none" stroke="#44525B" stroke-width="0.009" stroke-miterlimit="10" d="M111.568,86.632
					c2.471,15.373,16.583,27.158,33.63,27.158c11.662,0,21.947-5.514,28.075-13.925h12.488
					c-7.201,14.265-22.663,24.125-40.563,24.125c-24.771,0-44.857-18.876-44.857-42.165c0-23.281,20.086-42.156,44.857-42.156
					c24.777,0,44.862,18.875,44.862,42.156c0,1.619-0.094,3.229-0.103,4.807H111.568z M111.598,76.892h67.205
					c-2.522-15.313-16.604-27.03-33.605-27.03C128.202,49.861,114.116,61.578,111.598,76.892z"/>
				<path clip-path="url(#SVGID_6_)" fill="#44525B" d="M112.246,86.529c2.424,15.065,16.246,26.612,32.948,26.612
					c11.432,0,21.508-5.402,27.512-13.634h12.237c-7.052,13.967-22.203,23.63-39.749,23.63c-24.27,0-43.954-18.492-43.954-41.313
					s19.685-41.321,43.954-41.321c24.286,0,43.963,18.501,43.963,41.321c0,1.585-0.098,3.162-0.098,4.704H112.246z M112.271,76.993
					h65.863c-2.475-15.006-16.28-26.484-32.94-26.484C128.543,50.509,114.738,61.987,112.271,76.993"/>
				<path clip-path="url(#SVGID_6_)" fill="none" stroke="#44525B" stroke-width="0.009" d="M112.246,86.529
					c2.424,15.065,16.246,26.612,32.948,26.612c11.432,0,21.508-5.402,27.512-13.634h12.237
					c-7.052,13.967-22.203,23.63-39.749,23.63c-24.27,0-43.954-18.492-43.954-41.313s19.685-41.321,43.954-41.321
					c24.286,0,43.963,18.501,43.963,41.321c0,1.585-0.098,3.162-0.098,4.704H112.246z M112.271,76.993h65.863
					c-2.475-15.006-16.28-26.484-32.94-26.484C128.543,50.509,114.738,61.987,112.271,76.993z"/>
				<rect x="485.563" y="40.453" clip-path="url(#SVGID_6_)" fill="#44525B" width="49.936" height="85.232"/>
				
					<rect x="485.563" y="40.453" clip-path="url(#SVGID_6_)" fill="none" stroke="#44525B" stroke-width="0.009" stroke-miterlimit="10" width="49.936" height="85.232"/>
				<rect x="485.563" y="147.032" clip-path="url(#SVGID_6_)" fill="#44525B" width="49.936" height="14.129"/>
				
					<rect x="485.563" y="147.032" clip-path="url(#SVGID_6_)" fill="none" stroke="#44525B" stroke-width="0.009" stroke-miterlimit="10" width="49.936" height="14.129"/>
				<path clip-path="url(#SVGID_6_)" fill="#44525B" d="M5.595,86.504c-0.184-1.534-0.32-3.094-0.32-4.688
					c0-22.752,19.625-41.201,43.839-41.201c18.134,0,33.689,10.354,40.46,25.096H77.917c-5.846-9.187-16.579-15.348-28.803-15.348
					c-16.817,0-30.584,11.547-32.979,26.724h76.536c0.196,1.551,0.29,3.137,0.29,4.729c0,22.771-19.633,41.21-43.847,41.21
					c-17.47,0-32.557-9.604-39.6-23.502h11.921c6.029,8.309,16.178,13.763,27.678,13.763c16.796,0,30.741-11.624,33.148-26.783
					H5.595z"/>
				<path clip-path="url(#SVGID_6_)" fill="none" stroke="#44525B" stroke-width="0.009" d="M5.595,86.504
					c-0.184-1.534-0.32-3.094-0.32-4.688c0-22.752,19.625-41.201,43.839-41.201c18.134,0,33.689,10.354,40.46,25.096H77.917
					c-5.846-9.187-16.579-15.348-28.803-15.348c-16.817,0-30.584,11.547-32.979,26.724h76.536c0.196,1.551,0.29,3.137,0.29,4.729
					c0,22.771-19.633,41.21-43.847,41.21c-17.47,0-32.557-9.604-39.6-23.502h11.921c6.029,8.309,16.178,13.763,27.678,13.763
					c16.796,0,30.741-11.624,33.148-26.783H5.595z"/>
				<path clip-path="url(#SVGID_6_)" fill="#44525B" d="M198.224,86.026c-0.183-1.534-0.323-3.094-0.323-4.687
					c0-22.753,19.633-41.202,43.839-41.202c18.134,0,33.703,10.354,40.465,25.096h-11.658c-5.837-9.186-16.583-15.347-28.807-15.347
					c-16.813,0-30.584,11.546-32.966,26.724h76.532c0.179,1.551,0.281,3.136,0.281,4.729c0,22.77-19.634,41.219-43.848,41.219
					c-17.469,0-32.557-9.612-39.6-23.511h11.93c6.02,8.309,16.169,13.762,27.669,13.762c16.8,0,30.75-11.623,33.153-26.783H198.224z
					"/>
				<path clip-path="url(#SVGID_6_)" fill="none" stroke="#44525B" stroke-width="0.009" d="M198.224,86.026
					c-0.183-1.534-0.323-3.094-0.323-4.687c0-22.753,19.633-41.202,43.839-41.202c18.134,0,33.703,10.354,40.465,25.096h-11.658
					c-5.837-9.186-16.583-15.347-28.807-15.347c-16.813,0-30.584,11.546-32.966,26.724h76.532c0.179,1.551,0.281,3.136,0.281,4.729
					c0,22.77-19.634,41.219-43.848,41.219c-17.469,0-32.557-9.612-39.6-23.511h11.93c6.02,8.309,16.169,13.762,27.669,13.762
					c16.8,0,30.75-11.623,33.153-26.783H198.224z"/>
				<path clip-path="url(#SVGID_6_)" fill="#44525B" d="M295.89,49.171h-11.01v-9.953h11.01V4.39h10.413v34.828h60.64v9.953h-60.64
					v27.627v4.082c0,17.537,14.845,31.726,33.302,31.726c11.283,0,21.253-5.31,27.304-13.422h12.007
					c-7.115,13.745-22.028,23.229-39.268,23.229c-24.142,0-43.698-18.585-43.698-41.508L295.89,49.171z"/>
				<path clip-path="url(#SVGID_6_)" fill="none" stroke="#44525B" stroke-width="0.009" d="M295.89,49.171h-11.01v-9.953h11.01
					V4.39h10.413v34.828h60.64v9.953h-60.64v27.627v4.082c0,17.537,14.845,31.726,33.302,31.726c11.283,0,21.253-5.31,27.304-13.422
					h12.007c-7.115,13.745-22.028,23.229-39.268,23.229c-24.142,0-43.698-18.585-43.698-41.508L295.89,49.171z"/>
				<path clip-path="url(#SVGID_6_)" fill="#44525B" d="M13.988,148.873c-0.822-1.372-2.19-2.131-3.869-2.131
					c-2.275,0-4.431,1.364-4.431,3.647c0,1.96,1.555,2.881,3.272,3.579l1.04,0.409c1.291,0.503,2.591,1.158,2.591,2.684
					c0,1.475-1.159,2.753-2.774,2.753s-2.931-1.125-2.915-2.676l-1.896,0.375c0.315,2.267,2.215,3.954,4.653,3.954
					c2.697,0,4.806-1.841,4.806-4.406c0-2.359-1.598-3.468-3.732-4.252l-1.074-0.392c-0.941-0.333-2.097-0.921-2.097-2.028
					c0-1.235,1.321-2.003,2.514-2.003c1.133,0,1.858,0.452,2.408,1.33L13.988,148.873z"/>
				<path clip-path="url(#SVGID_6_)" fill="none" stroke="#44525B" stroke-width="0.009" stroke-miterlimit="10" d="M13.988,148.873
					c-0.822-1.372-2.19-2.131-3.869-2.131c-2.275,0-4.431,1.364-4.431,3.647c0,1.96,1.555,2.881,3.272,3.579l1.04,0.409
					c1.291,0.503,2.591,1.158,2.591,2.684c0,1.475-1.159,2.753-2.774,2.753s-2.931-1.125-2.915-2.676l-1.896,0.375
					c0.315,2.267,2.215,3.954,4.653,3.954c2.697,0,4.806-1.841,4.806-4.406c0-2.359-1.598-3.468-3.732-4.252l-1.074-0.392
					c-0.941-0.333-2.097-0.921-2.097-2.028c0-1.235,1.321-2.003,2.514-2.003c1.133,0,1.858,0.452,2.408,1.33L13.988,148.873z"/>
				<polygon clip-path="url(#SVGID_6_)" fill="#44525B" points="17.009,161.169 25.087,161.169 25.087,159.55 18.884,159.55 
					18.884,154.207 24.913,154.207 24.913,152.605 18.884,152.605 18.884,148.651 25.087,148.651 25.087,147.041 17.009,147.041 
									"/>
				<polygon clip-path="url(#SVGID_6_)" fill="none" stroke="#44525B" stroke-width="0.009" stroke-miterlimit="10" points="
					17.009,161.169 25.087,161.169 25.087,159.55 18.884,159.55 18.884,154.207 24.913,154.207 24.913,152.605 18.884,152.605 
					18.884,148.651 25.087,148.651 25.087,147.041 17.009,147.041 				"/>
				<path clip-path="url(#SVGID_6_)" fill="#44525B" d="M29.617,148.651h0.652c3.83,0,7.149,1.329,7.149,5.453
					c0,4.1-3.319,5.445-7.149,5.445h-0.652V148.651z M27.737,161.169h3.055c4.747,0,8.5-2.326,8.5-7.141
					c0-4.704-3.831-6.987-8.437-6.987h-3.119V161.169z"/>
				<path clip-path="url(#SVGID_6_)" fill="none" stroke="#44525B" stroke-width="0.009" stroke-miterlimit="10" d="M29.617,148.651
					h0.652c3.83,0,7.149,1.329,7.149,5.453c0,4.1-3.319,5.445-7.149,5.445h-0.652V148.651z M27.737,161.169h3.055
					c4.747,0,8.5-2.326,8.5-7.141c0-4.704-3.831-6.987-8.437-6.987h-3.119V161.169z"/>
				<rect x="41.598" y="147.032" clip-path="url(#SVGID_6_)" fill="#44525B" width="1.884" height="14.129"/>
				
					<rect x="41.598" y="147.032" clip-path="url(#SVGID_6_)" fill="none" stroke="#44525B" stroke-width="0.009" stroke-miterlimit="10" width="1.884" height="14.129"/>
				<polygon clip-path="url(#SVGID_6_)" fill="#44525B" points="46.779,161.169 54.861,161.169 54.861,159.55 48.658,159.55 
					48.658,154.207 54.687,154.207 54.687,152.605 48.658,152.605 48.658,148.651 54.861,148.651 54.861,147.041 46.779,147.041 
									"/>
				<polygon clip-path="url(#SVGID_6_)" fill="none" stroke="#44525B" stroke-width="0.009" stroke-miterlimit="10" points="
					46.779,161.169 54.861,161.169 54.861,159.55 48.658,159.55 48.658,154.207 54.687,154.207 54.687,152.605 48.658,152.605 
					48.658,148.651 54.861,148.651 54.861,147.041 46.779,147.041 				"/>
				<polygon clip-path="url(#SVGID_6_)" fill="#44525B" points="63.924,161.169 72.007,161.169 72.007,159.55 65.799,159.55 
					65.799,154.207 71.832,154.207 71.832,152.605 65.799,152.605 65.799,148.651 72.007,148.651 72.007,147.041 63.924,147.041 
									"/>
				<polygon clip-path="url(#SVGID_6_)" fill="none" stroke="#44525B" stroke-width="0.009" stroke-miterlimit="10" points="
					63.924,161.169 72.007,161.169 72.007,159.55 65.799,159.55 65.799,154.207 71.832,154.207 71.832,152.605 65.799,152.605 
					65.799,148.651 72.007,148.651 72.007,147.041 63.924,147.041 				"/>
				<path clip-path="url(#SVGID_6_)" fill="#44525B" d="M82.949,148.608h0.499c1.857,0,4.09,0.265,4.09,2.48
					c0,2.24-2.075,2.582-3.988,2.582h-0.601V148.608z M82.949,155.247h1.083c2.854,0,5.262-1.15,5.262-4.125
					c0-2.59-1.432-4.081-6.063-4.081h-2.156v14.128h1.875V155.247z"/>
				<path clip-path="url(#SVGID_6_)" fill="none" stroke="#44525B" stroke-width="0.009" stroke-miterlimit="10" d="M82.949,148.608
					h0.499c1.857,0,4.09,0.265,4.09,2.48c0,2.24-2.075,2.582-3.988,2.582h-0.601V148.608z M82.949,155.247h1.083
					c2.854,0,5.262-1.15,5.262-4.125c0-2.59-1.432-4.081-6.063-4.081h-2.156v14.128h1.875V155.247z"/>
				<path clip-path="url(#SVGID_6_)" fill="#44525B" d="M98.258,159.823c-3.243,0-6.004-2.497-6.004-5.719
					c0-3.118,2.48-5.726,6.004-5.726c3.536,0,6.003,2.607,6.003,5.726C104.261,157.326,101.513,159.823,98.258,159.823
					 M98.258,146.742c-4.299,0-7.878,3.315-7.878,7.362c0,4.193,3.532,7.354,7.878,7.354c4.346,0,7.882-3.161,7.882-7.354
					C106.14,150.058,102.569,146.742,98.258,146.742"/>
				<path clip-path="url(#SVGID_6_)" fill="none" stroke="#44525B" stroke-width="0.009" stroke-miterlimit="10" d="M98.258,159.823
					c-3.243,0-6.004-2.497-6.004-5.719c0-3.118,2.48-5.726,6.004-5.726c3.536,0,6.003,2.607,6.003,5.726
					C104.261,157.326,101.513,159.823,98.258,159.823z M98.258,146.742c-4.299,0-7.878,3.315-7.878,7.362
					c0,4.193,3.532,7.354,7.878,7.354c4.346,0,7.882-3.161,7.882-7.354C106.14,150.058,102.569,146.742,98.258,146.742z"/>
				<polygon clip-path="url(#SVGID_6_)" fill="#44525B" points="110.324,147.041 108.449,147.041 108.449,161.169 114.9,161.169 
					114.9,159.55 110.324,159.55 				"/>
				<polygon clip-path="url(#SVGID_6_)" fill="none" stroke="#44525B" stroke-width="0.009" stroke-miterlimit="10" points="
					110.324,147.041 108.449,147.041 108.449,161.169 114.9,161.169 114.9,159.55 110.324,159.55 				"/>
				<polygon clip-path="url(#SVGID_6_)" fill="#44525B" points="120.073,148.651 123.644,148.651 123.644,147.032 114.627,147.032 
					114.627,148.651 118.198,148.651 118.198,161.161 120.073,161.161 				"/>
				<polygon clip-path="url(#SVGID_6_)" fill="none" stroke="#44525B" stroke-width="0.009" stroke-miterlimit="10" points="
					120.073,148.651 123.644,148.651 123.644,147.032 114.627,147.032 114.627,148.651 118.198,148.651 118.198,161.161 
					120.073,161.161 				"/>
				<path clip-path="url(#SVGID_6_)" fill="#44525B" d="M127.491,148.608h0.499c1.85,0,4.095,0.324,4.095,2.531
					c0,2.25-2.079,2.59-3.997,2.59h-0.597V148.608z M130.222,155.025c2.173-0.247,3.613-1.935,3.613-3.954
					c0-1.354-0.724-2.692-1.973-3.383c-1.201-0.631-2.642-0.647-3.976-0.647h-2.279v14.12h1.883v-5.974h0.771l4.44,5.974h2.271
					L130.222,155.025z"/>
				<path clip-path="url(#SVGID_6_)" fill="none" stroke="#44525B" stroke-width="0.009" stroke-miterlimit="10" d="
					M127.491,148.608h0.499c1.85,0,4.095,0.324,4.095,2.531c0,2.25-2.079,2.59-3.997,2.59h-0.597V148.608z M130.222,155.025
					c2.173-0.247,3.613-1.935,3.613-3.954c0-1.354-0.724-2.692-1.973-3.383c-1.201-0.631-2.642-0.647-3.976-0.647h-2.279v14.12
					h1.883v-5.974h0.771l4.44,5.974h2.271L130.222,155.025z"/>
				<path clip-path="url(#SVGID_6_)" fill="#44525B" d="M143.759,159.823c-3.251,0-6.004-2.497-6.004-5.719
					c0-3.118,2.48-5.726,6.004-5.726c3.527,0,6.007,2.607,6.007,5.726C149.766,157.326,147.014,159.823,143.759,159.823
					 M143.759,146.742c-4.308,0-7.878,3.315-7.878,7.362c0,4.193,3.537,7.354,7.878,7.354c4.346,0,7.882-3.161,7.882-7.354
					C151.641,150.058,148.07,146.742,143.759,146.742"/>
				<path clip-path="url(#SVGID_6_)" fill="none" stroke="#44525B" stroke-width="0.009" stroke-miterlimit="10" d="
					M143.759,159.823c-3.251,0-6.004-2.497-6.004-5.719c0-3.118,2.48-5.726,6.004-5.726c3.527,0,6.007,2.607,6.007,5.726
					C149.766,157.326,147.014,159.823,143.759,159.823z M143.759,146.742c-4.308,0-7.878,3.315-7.878,7.362
					c0,4.193,3.537,7.354,7.878,7.354c4.346,0,7.882-3.161,7.882-7.354C151.641,150.058,148.07,146.742,143.759,146.742z"/>
				<polygon clip-path="url(#SVGID_6_)" fill="#44525B" points="153.767,161.178 155.642,161.178 155.642,150.637 166.933,161.757 
					166.933,147.032 165.058,147.032 165.058,157.471 153.767,146.351 				"/>
				<polygon clip-path="url(#SVGID_6_)" fill="none" stroke="#44525B" stroke-width="0.009" stroke-miterlimit="10" points="
					153.767,161.178 155.642,161.178 155.642,150.637 166.933,161.757 166.933,147.032 165.058,147.032 165.058,157.471 
					153.767,146.351 				"/>
				<polygon clip-path="url(#SVGID_6_)" fill="#44525B" points="170.099,161.169 178.177,161.169 178.177,159.55 171.974,159.55 
					171.974,154.207 178.002,154.207 178.002,152.605 171.974,152.605 171.974,148.651 178.177,148.651 178.177,147.041 
					170.099,147.041 				"/>
				<polygon clip-path="url(#SVGID_6_)" fill="none" stroke="#44525B" stroke-width="0.009" stroke-miterlimit="10" points="
					170.099,161.169 178.177,161.169 178.177,159.55 171.974,159.55 171.974,154.207 178.002,154.207 178.002,152.605 
					171.974,152.605 171.974,148.651 178.177,148.651 178.177,147.041 170.099,147.041 				"/>
				<path clip-path="url(#SVGID_6_)" fill="#44525B" d="M189.119,148.608h0.499c1.857,0,4.095,0.265,4.095,2.48
					c0,2.24-2.079,2.582-3.988,2.582h-0.605V148.608z M189.119,155.247h1.083c2.846,0,5.262-1.15,5.262-4.125
					c0-2.59-1.44-4.081-6.063-4.081h-2.156v14.128h1.875V155.247z"/>
				<path clip-path="url(#SVGID_6_)" fill="none" stroke="#44525B" stroke-width="0.009" stroke-miterlimit="10" d="
					M189.119,148.608h0.499c1.857,0,4.095,0.265,4.095,2.48c0,2.24-2.079,2.582-3.988,2.582h-0.605V148.608z M189.119,155.247h1.083
					c2.846,0,5.262-1.15,5.262-4.125c0-2.59-1.44-4.081-6.063-4.081h-2.156v14.128h1.875V155.247z"/>
				<polygon clip-path="url(#SVGID_6_)" fill="#44525B" points="197.61,161.169 205.693,161.169 205.693,159.55 199.489,159.55 
					199.489,154.207 205.519,154.207 205.519,152.605 199.489,152.605 199.489,148.651 205.693,148.651 205.693,147.041 
					197.61,147.041 				"/>
				<polygon clip-path="url(#SVGID_6_)" fill="none" stroke="#44525B" stroke-width="0.009" stroke-miterlimit="10" points="
					197.61,161.169 205.693,161.169 205.693,159.55 199.489,159.55 199.489,154.207 205.519,154.207 205.519,152.605 
					199.489,152.605 199.489,148.651 205.693,148.651 205.693,147.041 197.61,147.041 				"/>
				<path clip-path="url(#SVGID_6_)" fill="#44525B" d="M210.384,148.608h0.499c1.849,0,4.09,0.324,4.09,2.531
					c0,2.25-2.075,2.59-3.996,2.59h-0.592V148.608z M213.115,155.025c2.173-0.247,3.604-1.935,3.604-3.954
					c0-1.354-0.716-2.692-1.973-3.383c-1.197-0.631-2.637-0.647-3.971-0.647h-2.275v14.12h1.883v-5.974h0.767l4.443,5.974h2.267
					L213.115,155.025z"/>
				<path clip-path="url(#SVGID_6_)" fill="none" stroke="#44525B" stroke-width="0.009" stroke-miterlimit="10" d="
					M210.384,148.608h0.499c1.849,0,4.09,0.324,4.09,2.531c0,2.25-2.075,2.59-3.996,2.59h-0.592V148.608z M213.115,155.025
					c2.173-0.247,3.604-1.935,3.604-3.954c0-1.354-0.716-2.692-1.973-3.383c-1.197-0.631-2.637-0.647-3.971-0.647h-2.275v14.12
					h1.883v-5.974h0.767l4.443,5.974h2.267L213.115,155.025z"/>
				<polygon clip-path="url(#SVGID_6_)" fill="#44525B" points="227.964,147.041 226.089,147.041 226.089,161.169 232.536,161.169 
					232.536,159.55 227.964,159.55 				"/>
				<polygon clip-path="url(#SVGID_6_)" fill="none" stroke="#44525B" stroke-width="0.009" stroke-miterlimit="10" points="
					227.964,147.041 226.089,147.041 226.089,161.169 232.536,161.169 232.536,159.55 227.964,159.55 				"/>
				<polygon clip-path="url(#SVGID_6_)" fill="#44525B" points="233.989,146.742 231.79,151.897 232.906,152.324 235.565,147.321 
									"/>
				<polygon clip-path="url(#SVGID_6_)" fill="none" stroke="#44525B" stroke-width="0.009" stroke-miterlimit="10" points="
					233.989,146.742 231.79,151.897 232.906,152.324 235.565,147.321 				"/>
				<path clip-path="url(#SVGID_6_)" fill="#44525B" d="M238.429,147.041v8.931c0,3.118,2.049,5.487,5.496,5.487
					c3.456,0,5.505-2.369,5.505-5.487v-8.931h-1.866v8.334c0,2.31-0.741,4.448-3.639,4.448c-2.889,0-3.622-2.139-3.622-4.448v-8.334
					H238.429z"/>
				<path clip-path="url(#SVGID_6_)" fill="none" stroke="#44525B" stroke-width="0.009" stroke-miterlimit="10" d="
					M238.429,147.041v8.931c0,3.118,2.049,5.487,5.496,5.487c3.456,0,5.505-2.369,5.505-5.487v-8.931h-1.866v8.334
					c0,2.31-0.741,4.448-3.639,4.448c-2.889,0-3.622-2.139-3.622-4.448v-8.334H238.429z"/>
				<polygon clip-path="url(#SVGID_6_)" fill="#44525B" points="259.788,148.651 259.788,147.032 252.502,147.032 252.502,161.161 
					254.377,161.161 254.377,154.233 259.604,154.233 259.604,152.622 254.377,152.622 254.377,148.651 				"/>
				<polygon clip-path="url(#SVGID_6_)" fill="none" stroke="#44525B" stroke-width="0.009" stroke-miterlimit="10" points="
					259.788,148.651 259.788,147.032 252.502,147.032 252.502,161.161 254.377,161.161 254.377,154.233 259.604,154.233 
					259.604,152.622 254.377,152.622 254.377,148.651 				"/>
				<polygon clip-path="url(#SVGID_6_)" fill="#44525B" points="269.737,148.651 269.737,147.032 262.451,147.032 262.451,161.161 
					264.325,161.161 264.325,154.233 269.554,154.233 269.554,152.622 264.325,152.622 264.325,148.651 				"/>
				<polygon clip-path="url(#SVGID_6_)" fill="none" stroke="#44525B" stroke-width="0.009" stroke-miterlimit="10" points="
					269.737,148.651 269.737,147.032 262.451,147.032 262.451,161.161 264.325,161.161 264.325,154.233 269.554,154.233 
					269.554,152.622 264.325,152.622 264.325,148.651 				"/>
				<rect x="272.357" y="147.032" clip-path="url(#SVGID_6_)" fill="#44525B" width="1.892" height="14.129"/>
				
					<rect x="272.357" y="147.032" clip-path="url(#SVGID_6_)" fill="none" stroke="#44525B" stroke-width="0.009" stroke-miterlimit="10" width="1.892" height="14.129"/>
				<path clip-path="url(#SVGID_6_)" fill="#44525B" d="M288.493,147.696c-1.125-0.655-2.472-0.954-3.784-0.954
					c-4.431,0-8.002,3.255-8.002,7.431c0,4.091,3.554,7.295,7.831,7.295c1.321,0,2.805-0.357,3.955-0.997v-2.079
					c-1.108,0.938-2.523,1.457-4.006,1.457c-3.357,0-5.905-2.633-5.905-5.735c0-3.118,2.573-5.769,5.939-5.769
					c1.415,0,2.897,0.494,3.972,1.389V147.696z"/>
				<path clip-path="url(#SVGID_6_)" fill="none" stroke="#44525B" stroke-width="0.009" stroke-miterlimit="10" d="
					M288.493,147.696c-1.125-0.655-2.472-0.954-3.784-0.954c-4.431,0-8.002,3.255-8.002,7.431c0,4.091,3.554,7.295,7.831,7.295
					c1.321,0,2.805-0.357,3.955-0.997v-2.079c-1.108,0.938-2.523,1.457-4.006,1.457c-3.357,0-5.905-2.633-5.905-5.735
					c0-3.118,2.573-5.769,5.939-5.769c1.415,0,2.897,0.494,3.972,1.389V147.696z"/>
				<rect x="291.151" y="147.032" clip-path="url(#SVGID_6_)" fill="#44525B" width="1.892" height="14.129"/>
				
					<rect x="291.151" y="147.032" clip-path="url(#SVGID_6_)" fill="none" stroke="#44525B" stroke-width="0.009" stroke-miterlimit="10" width="1.892" height="14.129"/>
				<path clip-path="url(#SVGID_6_)" fill="#44525B" d="M303.167,159.823c-3.256,0-6-2.497-6-5.719c0-3.118,2.472-5.726,6-5.726
					c3.527,0,6.008,2.607,6.008,5.726C309.175,157.326,306.422,159.823,303.167,159.823 M303.167,146.742
					c-4.313,0-7.874,3.315-7.874,7.362c0,4.193,3.528,7.354,7.874,7.354s7.874-3.161,7.874-7.354
					C311.041,150.058,307.479,146.742,303.167,146.742"/>
				<path clip-path="url(#SVGID_6_)" fill="none" stroke="#44525B" stroke-width="0.009" stroke-miterlimit="10" d="
					M303.167,159.823c-3.256,0-6-2.497-6-5.719c0-3.118,2.472-5.726,6-5.726c3.527,0,6.008,2.607,6.008,5.726
					C309.175,157.326,306.422,159.823,303.167,159.823z M303.167,146.742c-4.313,0-7.874,3.315-7.874,7.362
					c0,4.193,3.528,7.354,7.874,7.354s7.874-3.161,7.874-7.354C311.041,150.058,307.479,146.742,303.167,146.742z"/>
				<polygon clip-path="url(#SVGID_6_)" fill="#44525B" points="319.613,161.169 327.7,161.169 327.7,159.55 321.488,159.55 
					321.488,154.207 327.521,154.207 327.521,152.605 321.488,152.605 321.488,148.651 327.7,148.651 327.7,147.041 
					319.613,147.041 				"/>
				<polygon clip-path="url(#SVGID_6_)" fill="none" stroke="#44525B" stroke-width="0.009" stroke-miterlimit="10" points="
					319.613,161.169 327.7,161.169 327.7,159.55 321.488,159.55 321.488,154.207 327.521,154.207 327.521,152.605 321.488,152.605 
					321.488,148.651 327.7,148.651 327.7,147.041 319.613,147.041 				"/>
				<polygon clip-path="url(#SVGID_6_)" fill="#44525B" points="338.634,147.041 336.759,147.041 336.759,161.169 343.201,161.169 
					343.201,159.55 338.634,159.55 				"/>
				<polygon clip-path="url(#SVGID_6_)" fill="none" stroke="#44525B" stroke-width="0.009" stroke-miterlimit="10" points="
					338.634,147.041 336.759,147.041 336.759,161.169 343.201,161.169 343.201,159.55 338.634,159.55 				"/>
				<path clip-path="url(#SVGID_6_)" fill="#44525B" d="M353.188,156.005h-5.344l2.676-5.709L353.188,156.005z M353.972,157.624
					l1.722,3.545h2.011l-7.184-14.742l-7.184,14.742h2.012l1.721-3.545H353.972z"/>
				<path clip-path="url(#SVGID_6_)" fill="none" stroke="#44525B" stroke-width="0.009" stroke-miterlimit="10" d="
					M353.188,156.005h-5.344l2.676-5.709L353.188,156.005z M353.972,157.624l1.722,3.545h2.011l-7.184-14.742l-7.184,14.742h2.012
					l1.721-3.545H353.972z"/>
				<path clip-path="url(#SVGID_6_)" fill="#44525B" d="M376.656,147.696c-1.133-0.655-2.471-0.954-3.783-0.954
					c-4.431,0-8.011,3.255-8.011,7.431c0,4.091,3.563,7.295,7.849,7.295c1.304,0,2.795-0.357,3.945-0.997v-2.079
					c-1.116,0.938-2.53,1.457-4.005,1.457c-3.357,0-5.914-2.633-5.914-5.735c0-3.118,2.582-5.769,5.948-5.769
					c1.415,0,2.897,0.494,3.971,1.389V147.696z"/>
				<path clip-path="url(#SVGID_6_)" fill="none" stroke="#44525B" stroke-width="0.009" stroke-miterlimit="10" d="
					M376.656,147.696c-1.133-0.655-2.471-0.954-3.783-0.954c-4.431,0-8.011,3.255-8.011,7.431c0,4.091,3.563,7.295,7.849,7.295
					c1.304,0,2.795-0.357,3.945-0.997v-2.079c-1.116,0.938-2.53,1.457-4.005,1.457c-3.357,0-5.914-2.633-5.914-5.735
					c0-3.118,2.582-5.769,5.948-5.769c1.415,0,2.897,0.494,3.971,1.389V147.696z"/>
				<path clip-path="url(#SVGID_6_)" fill="#44525B" d="M386.2,159.823c-3.255,0-5.999-2.497-5.999-5.719
					c0-3.118,2.48-5.726,5.999-5.726c3.528,0,6.008,2.607,6.008,5.726C392.208,157.326,389.456,159.823,386.2,159.823
					 M386.2,146.742c-4.303,0-7.873,3.315-7.873,7.362c0,4.193,3.527,7.354,7.873,7.354c4.347,0,7.875-3.161,7.875-7.354
					C394.075,150.058,390.513,146.742,386.2,146.742"/>
				<path clip-path="url(#SVGID_6_)" fill="none" stroke="#44525B" stroke-width="0.009" stroke-miterlimit="10" d="M386.2,159.823
					c-3.255,0-5.999-2.497-5.999-5.719c0-3.118,2.48-5.726,5.999-5.726c3.528,0,6.008,2.607,6.008,5.726
					C392.208,157.326,389.456,159.823,386.2,159.823z M386.2,146.742c-4.303,0-7.873,3.315-7.873,7.362
					c0,4.193,3.527,7.354,7.873,7.354c4.347,0,7.875-3.161,7.875-7.354C394.075,150.058,390.513,146.742,386.2,146.742z"/>
				<polygon clip-path="url(#SVGID_6_)" fill="#44525B" points="403.457,161.468 407.957,151.821 408,151.821 409.754,161.169 
					411.682,161.169 408.621,146.419 403.457,157.564 398.284,146.419 395.208,161.169 397.143,161.169 398.897,151.821 
					398.949,151.821 				"/>
				<polygon clip-path="url(#SVGID_6_)" fill="none" stroke="#44525B" stroke-width="0.009" stroke-miterlimit="10" points="
					403.457,161.468 407.957,151.821 408,151.821 409.754,161.169 411.682,161.169 408.621,146.419 403.457,157.564 
					398.284,146.419 395.208,161.169 397.143,161.169 398.897,151.821 398.949,151.821 				"/>
				<path clip-path="url(#SVGID_6_)" fill="#44525B" d="M413.598,147.041v8.931c0,3.118,2.063,5.487,5.506,5.487
					c3.451,0,5.514-2.369,5.514-5.487v-8.931h-1.885v8.334c0,2.31-0.732,4.448-3.629,4.448c-2.889,0-3.623-2.139-3.623-4.448v-8.334
					H413.598z"/>
				<path clip-path="url(#SVGID_6_)" fill="none" stroke="#44525B" stroke-width="0.009" stroke-miterlimit="10" d="
					M413.598,147.041v8.931c0,3.118,2.063,5.487,5.506,5.487c3.451,0,5.514-2.369,5.514-5.487v-8.931h-1.885v8.334
					c0,2.31-0.732,4.448-3.629,4.448c-2.889,0-3.623-2.139-3.623-4.448v-8.334H413.598z"/>
				<polygon clip-path="url(#SVGID_6_)" fill="#44525B" points="427.514,161.178 429.389,161.178 429.389,150.637 440.688,161.757 
					440.688,147.032 438.813,147.032 438.813,157.471 427.514,146.351 				"/>
				<polygon clip-path="url(#SVGID_6_)" fill="none" stroke="#44525B" stroke-width="0.009" stroke-miterlimit="10" points="
					427.514,161.178 429.389,161.178 429.389,150.637 440.688,161.757 440.688,147.032 438.813,147.032 438.813,157.471 
					427.514,146.351 				"/>
				<rect x="443.789" y="147.032" clip-path="url(#SVGID_6_)" fill="#44525B" width="1.885" height="14.129"/>
				
					<rect x="443.789" y="147.032" clip-path="url(#SVGID_6_)" fill="none" stroke="#44525B" stroke-width="0.009" stroke-miterlimit="10" width="1.885" height="14.129"/>
				<polygon clip-path="url(#SVGID_6_)" fill="#44525B" points="453.027,148.651 456.598,148.651 456.598,147.032 447.574,147.032 
					447.574,148.651 451.152,148.651 451.152,161.161 453.027,161.161 				"/>
				<polygon clip-path="url(#SVGID_6_)" fill="none" stroke="#44525B" stroke-width="0.009" stroke-miterlimit="10" points="
					453.027,148.651 456.598,148.651 456.598,147.032 447.574,147.032 447.574,148.651 451.152,148.651 451.152,161.161 
					453.027,161.161 				"/>
				<path clip-path="url(#SVGID_6_)" fill="#44525B" d="M466.814,156.014h-5.334l2.668-5.709L466.814,156.014z M467.6,157.624
					l1.721,3.545h2.012l-7.184-14.733l-7.184,14.733h2.02l1.713-3.545H467.6z M462.076,142.874l3.273,2.795l0.869-0.512l-2.488-3.11
					L462.076,142.874z"/>
				<path clip-path="url(#SVGID_6_)" fill="none" stroke="#44525B" stroke-width="0.009" stroke-miterlimit="10" d="
					M466.814,156.014h-5.334l2.668-5.709L466.814,156.014z M467.6,157.624l1.721,3.545h2.012l-7.184-14.733l-7.184,14.733h2.02
					l1.713-3.545H467.6z M462.076,142.874l3.273,2.795l0.869-0.512l-2.488-3.11L462.076,142.874z"/>
			</g>
		</g>
	</g>
</g>
</svg>
