<?xml version="1.0" encoding="utf-8"?>
<!-- Generator: Adobe Illustrator 16.0.0, SVG Export Plug-In . SVG Version: 6.00 Build 0)  -->
<!DOCTYPE svg PUBLIC "-//W3C//DTD SVG 1.1//EN" "http://www.w3.org/Graphics/SVG/1.1/DTD/svg11.dtd">
<svg version="1.1" id="Capa_1" xmlns="http://www.w3.org/2000/svg" xmlns:xlink="http://www.w3.org/1999/xlink" x="0px" y="0px"
	 width="512px" height="512px" viewBox="0 0 512 512" enable-background="new 0 0 512 512" xml:space="preserve">
<g>
	<path fill="#44525B" d="M255.992,512C114.833,512,0,397.151,0,255.991C0,114.833,114.833,0,255.992,0
		s255.992,114.833,255.992,255.991C512,397.151,397.151,512,255.992,512z M255.992,29.244
		c-125.037,0-226.748,101.727-226.748,226.747s101.711,226.731,226.748,226.731c125.021,0,226.731-101.711,226.731-226.731
		S381.012,29.244,255.992,29.244z"/>
</g>
<g>
	<rect x="239.789" y="239.789" fill="none" width="32.422" height="32.422"/>
</g>
<g>
	<path fill="#44525B" d="M255.688,327.126l-104.942-99.686c-6.636-6.296-6.904-16.781-0.603-23.408
		c6.297-6.628,16.788-6.911,23.409-0.602l82.206,78.08l82.717-78.115c6.663-6.268,17.113-5.979,23.417,0.671
		c6.274,6.648,5.983,17.134-0.664,23.409L255.688,327.126z"/>
</g>
</svg>
