<?xml version="1.0" encoding="utf-8"?>
<!-- Generator: Adobe Illustrator 16.0.0, SVG Export Plug-In . SVG Version: 6.00 Build 0)  -->
<!DOCTYPE svg PUBLIC "-//W3C//DTD SVG 1.1//EN" "http://www.w3.org/Graphics/SVG/1.1/DTD/svg11.dtd">
<svg version="1.1" id="Capa_1" xmlns="http://www.w3.org/2000/svg" xmlns:xlink="http://www.w3.org/1999/xlink" x="0px" y="0px"
	 width="512px" height="512px" viewBox="0 0 512 512" enable-background="new 0 0 512 512" xml:space="preserve">
<g>
	<path fill="#FFFFFF" d="M256.311,198.874l104.942,99.687c6.636,6.296,6.904,16.78,0.603,23.408
		c-6.297,6.628-16.788,6.91-23.409,0.602l-82.205-78.08l-82.718,78.115c-6.663,6.268-17.112,5.979-23.417-0.671
		c-6.273-6.648-5.982-17.135,0.664-23.409L256.311,198.874z"/>
</g>
</svg>
